{
  "gis": {
    "0d_rl": {"cmd": "Read GIS Reporting Location", "cf": "TCF"},
    "1d_bc": {"cmd": "Read GIS BC", "cf": "ECF"},
    "1d_bg": {"cmd": "Read GIS Table Links", "cf": "ECF"},
    "1d_iwl": {"cmd": "Read GIS IWL", "cf": "ECF"},
    "1d_lc": {"cmd": "Read GIS Table Links", "cf": "ECF"},
    "1d_mh": {"cmd": "Read GIS Manhole", "cf": "ECF"},
    "1d_na": {"cmd": "Read GIS Table Links", "cf": "ECF"},
    "1d_nd": {"cmd": "Read GIS Node", "cf": "ECF"},
    "1d_nwk": {"cmd": "Read GIS Network", "cf": "ECF"},
    "1d_nwkb": {"cmd": "Read GIS Network", "cf": "ECF"},
    "1d_nwke": {"cmd": "Read GIS Network", "cf": "ECF"},
    "1d_pit": {"cmd": "Read GIS Pit", "cf": "ECF"},
    "1d_tab": {"cmd": "Read GIS Table Links", "cf": "ECF"},
    "1d_wll": {"cmd": "Read GIS WLL", "cf": "ECF"},
    "1d_xs": {"cmd": "Read GIS Table Links", "cf": "ECF"},
    "2d_at": {"cmd": "Read GIS Auto Terminate", "cf": "TCF"},
    "2d_bc": {"cmd": "Read GIS BC", "cf": "TBC"},
    "2d_bg": {"cmd": "Read GIS BG Shape", "cf": "TGC"},
    "2d_bg_pts": {"cmd": "Read GIS BG Shape", "cf": "TGC"},
    "2d_code": {"cmd": "Read GIS Code", "cf": "TGC"},
    "2d_cwf": {"cmd": "Read GIS CWF", "cf": "TGC"},
    "2d_fc": {"cmd": "Read GIS FC", "cf": "TGC"},
    "2d_flc": {"cmd": "Read GIS FLC", "cf": "TGC"},
    "2d_glo": {"cmd": "Read GIS GLO", "cf": "TCF"},
    "2d_iwl": {"cmd": "Read GIS IWL", "cf": "TCF"},
    "2d_lfcsh": {"cmd": "Read GIS Layered FC Shape", "cf": "TGC"},
    "2d_lfcsh_pts": {"cmd": "Read GIS Layered FC Shape", "cf": "TGC"},
    "2d_loc": {"cmd": "Read GIS Location", "cf": "TGC"},
    "2d_lp": {"cmd": "Read GIS LP", "cf": "TCF"},
    "2d_mat": {"cmd": "Read GIS Mat", "cf": "TGC"},
    "2d_obj": {"cmd": "Read GIS Objects", "cf": "TGC"},
    "2d_oz": {"cmd": "Read GIS Output Zone", "cf": "TCF"},
    "2d_po": {"cmd": "Read GIS PO", "cf": "TCF"},
    "2d_qnl": {"cmd": "Read GIS Nesting", "cf": "QCF"},
    "2d_rec": {"cmd": "Read GIS Objects", "cf": "TGC"},
    "2d_rf": {"cmd": "Read GIS RF", "cf": "TBC"},
    "2d_sa": {"cmd": "Read GIS SA", "cf": "TBC"},
    "2d_sa_rf": {"cmd": "Read GIS SA RF", "cf": "TBC"},
    "2d_sa_tr": {"cmd": "Read GIS SA Trigger", "cf": "TBC"},
    "2d_soil": {"cmd": "Read GIS Soil", "cf": "TGC"},
    "2d_vzsh": {"cmd": "Read GIS Variable Z Shape", "cf": "TGC"},
    "2d_wrf": {"cmd": "Read GIS WRF", "cf": "TGC"},
    "2d_z__": {"cmd": "Read GIS Z Line", "cf": "TGC"},
    "2d_zsh": {"cmd": "Read GIS Z Shape", "cf": "TGC"},
    "2d_zshr": {"cmd": "Read GIS Z Shape Route", "cf": "TGC"},
    "2d_ztin": {"cmd": "Create Tin Zpts", "cf": "TGC"}
  },
  "grid": {"cmd": "Read Grid Zpts", "cf": "TGC"},
  "tin": {"cmd": "Read Tin Zpts", "cf": "TGC"}
}