[
  "ABSTRACTION",
  "BERNOULLI",
  "BLOCKAGE",
  "QHBDY",
  "HTBDY",
  "QTBDY",
  "TIDBDY",
  "REBDY",
  "NCDBDY",
  "BRIDGE",
  "CONDUIT",
  "CULVERT",
  "FLOODPLAIN",
  "FLOOD RELIEF",
  "GAUGE",
  "LOSS",
  "FEHBDY",
  "FRQSIM",
  "FSSR16BDY",
  "GERRBDY",
  "ReFHBDY",
  "ReFH2BDY",
  "SCSBDY",
  "INTERPOLATE",
  "JUNCTION",
  "LATERAL",
  "MANHOLE",
  "ORIFICE",
  "POND",
  "OCPUMP",
  "QRATING",
  "REPLICATE",
  "RESERVOIR",
  "RIVER",
  "SLUICE",
  "SPILL",
  "BREACH",
  "RNWEIR",
  "CRUMP",
  "FLAT-V WEIR",
  "QH CONTROL",
  "GATED WEIR",
  "LABYRINTH WEIR",
  "NOTWEIR",
  "SCWEIR",
  "SYPHON",
  "WEIR",
  "WIND DATA",
  "RULES"
]